Gov 50 Final Project
…
election_data <- election_deniers |>
  select(Stance, `Dem or Rep State`, `Won or Lost their Race`, `The FiveThirtyEight partisan lean of every state`) 

election_data <- 
  rename(election_data, President = `Dem or Rep State`) |>
  rename(Elected_or_not = `Won or Lost their Race`) |>
  rename(State_partisan_lean = `The FiveThirtyEight partisan lean of every state`)

election_data

# A tibble: 552 × 4
   Stance                 President Elected_or_not State_partisan_lean
   <chr>                  <chr>     <chr>                        <dbl>
 1 Fully denied           Trump     Elected                       29.6
 2 Fully denied           Trump     Elected                       29.6
 3 Fully denied           Trump     Elected                       29.6
 4 Fully denied           Trump     Elected                       29.6
 5 Fully denied           Trump     Elected                       29.6
 6 Fully denied           Trump     Elected                       29.6
 7 Fully denied           Trump     Elected                       29.6
 8 Raised questions       Trump     Not Elected                   29.6
 9 Fully denied           Trump     Elected                       29.6
10 Accepted with reserva… Trump     Elected                       29.6
# ℹ 542 more rows
…
